sepal length, petal length
5.1,1.4,iris-setosa
4.9,1.4,iris-setosa
4.7,1.3,iris-setosa
4.6,1.5,iris-setosa
5.0,1.4,iris-setosa
5.4,1.7,iris-setosa
4.6,1.4,iris-setosa
5.0,1.5,iris-setosa
4.4,1.4,iris-setosa
4.9,1.5,iris-setosa
5.4,1.5,iris-setosa
4.8,1.6,iris-setosa
4.8,1.4,iris-setosa
4.3,1.1,iris-setosa
5.8,1.2,iris-setosa
5.7,1.5,iris-setosa
5.4,1.3,iris-setosa
5.1,1.4,iris-setosa
5.7,1.7,iris-setosa
5.1,1.5,iris-setosa
5.4,1.7,iris-setosa
5.1,1.5,iris-setosa
4.6,1.0,iris-setosa
5.1,1.7,iris-setosa
4.8,1.9,iris-setosa
5.0,1.6,iris-setosa
5.0,1.6,iris-setosa
5.2,1.5,iris-setosa
5.2,1.4,iris-setosa
4.7,1.6,iris-setosa
4.8,1.6,iris-setosa
5.4,1.5,iris-setosa
5.2,1.5,iris-setosa
5.5,1.4,iris-setosa
4.9,1.5,iris-setosa
5.0,1.2,iris-setosa
5.5,1.3,iris-setosa
4.9,1.5,iris-setosa
4.4,1.3,iris-setosa
5.1,1.5,iris-setosa
5.0,1.3,iris-setosa
4.5,1.3,iris-setosa
4.4,1.3,iris-setosa
5.0,1.6,iris-setosa
5.1,1.9,iris-setosa
4.8,1.4,iris-setosa
5.1,1.6,iris-setosa
4.6,1.4,iris-setosa
5.3,1.5,iris-setosa
5.0,1.4,iris-setosa
7.0,4.7,iris-versicolor
6.4,4.5,iris-versicolor
6.9,4.9,iris-versicolor
5.5,4.0,iris-versicolor
6.5,4.6,iris-versicolor
5.7,4.5,iris-versicolor
6.3,4.7,iris-versicolor
4.9,3.3,iris-versicolor
6.6,4.6,iris-versicolor
5.2,3.9,iris-versicolor
5.0,3.5,iris-versicolor
5.9,4.2,iris-versicolor
6.0,4.0,iris-versicolor
6.1,4.7,iris-versicolor
5.6,3.6,iris-versicolor
6.7,4.4,iris-versicolor
5.6,4.5,iris-versicolor
5.8,4.1,iris-versicolor
6.2,4.5,iris-versicolor
5.6,3.9,iris-versicolor
5.9,4.8,iris-versicolor
6.1,4.0,iris-versicolor
6.3,4.9,iris-versicolor
6.1,4.7,iris-versicolor
6.4,4.3,iris-versicolor
6.6,4.4,iris-versicolor
6.8,4.8,iris-versicolor
6.7,5.0,iris-versicolor
6.0,4.5,iris-versicolor
5.7,3.5,iris-versicolor
5.5,3.8,iris-versicolor
5.5,3.7,iris-versicolor
5.8,3.9,iris-versicolor
6.0,5.1,iris-versicolor
5.4,4.5,iris-versicolor
6.0,4.5,iris-versicolor
6.7,4.7,iris-versicolor
6.3,4.4,iris-versicolor
5.6,4.1,iris-versicolor
5.5,4.0,iris-versicolor
5.5,4.4,iris-versicolor
6.1,4.6,iris-versicolor
5.8,4.0,iris-versicolor
5.0,3.3,iris-versicolor
5.6,4.2,iris-versicolor
5.7,4.2,iris-versicolor
5.7,4.2,iris-versicolor
6.2,4.3,iris-versicolor
5.1,3.0,iris-versicolor
5.7,4.1,iris-versicolor
